[gd_resource type="Animation" format=2]

[resource]

resource_name = "bounce"
length = 1.0
loop = false
step = 0.1
tracks/0/type = "value"
tracks/0/path = NodePath("sprite:scale")
tracks/0/interp = 2
tracks/0/loop_wrap = false
tracks/0/imported = false
tracks/0/enabled = true
tracks/0/keys = {
"times": PoolRealArray( 0, 1 ),
"transitions": PoolRealArray( 0.25, 0.25 ),
"update": 0,
"values": [ Vector2( 1, 0.620494 ), Vector2( 1, 1 ) ]
}

